{
	"info": {
		"_postman_id": "14604230-356c-42ab-aac3-563198a6d4a9",
		"name": "Devops_J5",
		"schema": "https://schema.getpostman.com/json/collection/v2.1.0/collection.json",
		"_exporter_id": "27052907"
	},
	"item": [
		{
			"name": "status",
			"event": [
				{
					"listen": "test",
					"script": {
						"exec": [
							"pm.test(\"Status code is 200\", function () {\r",
							"    pm.response.to.have.status(200);\r",
							"})"
						],
						"type": "text/javascript"
					}
				}
			],
			"request": {
				"method": "GET",
				"header": [],
				"url": {
					"raw": "{{URL_APP}}/status",
					"host": [
						"{{URL_APP}}"
					],
					"path": [
						"status"
					]
				}
			},
			"response": []
		},
		{
			"name": "city",
			"event": [
				{
					"listen": "test",
					"script": {
						"exec": [
							"pm.test(\"Body contains message\", () => {\r",
							"    pm.expect(pm.response.text()).to.include(\"Bordeaux\");\r",
							"})\r",
							"pm.test(\"Body contains message\", () => {\r",
							"    pm.expect(pm.response.text()).to.include(\"Paris\");\r",
							"})\r",
							"pm.test(\"Body contains message\", () => {\r",
							"    pm.expect(pm.response.text()).to.include(\"Lyon\");\r",
							"})\r",
							"pm.test(\"Body contains message\", () => {\r",
							"    pm.expect(pm.response.text()).to.include(\"Strasbourg\");\r",
							"})\r",
							"pm.test(\"Body contains message\", () => {\r",
							"    pm.expect(pm.response.text()).to.include(\"Marseille\");\r",
							"})\r",
							"pm.test(\"Body contains message\", () => {\r",
							"    pm.expect(pm.response.text()).to.include(\"Toulouse\");\r",
							"})"
						],
						"type": "text/javascript"
					}
				}
			],
			"request": {
				"method": "GET",
				"header": [],
				"url": {
					"raw": "{{URL_APP}}/city",
					"host": [
						"{{URL_APP}}"
					],
					"path": [
						"city"
					]
				}
			},
			"response": []
		},
		{
			"name": "test",
			"event": [
				{
					"listen": "test",
					"script": {
						"exec": [
							"pm.test(\"Status code is 200\", function () {\r",
							"    pm.response.to.have.status(404);\r",
							"})"
						],
						"type": "text/javascript"
					}
				}
			],
			"request": {
				"method": "GET",
				"header": [],
				"url": {
					"raw": "{{URL_APP}}/test",
					"host": [
						"{{URL_APP}}"
					],
					"path": [
						"test"
					]
				}
			},
			"response": []
		}
	],
	"event": [
		{
			"listen": "prerequest",
			"script": {
				"type": "text/javascript",
				"exec": [
					""
				]
			}
		},
		{
			"listen": "test",
			"script": {
				"type": "text/javascript",
				"exec": [
					""
				]
			}
		}
	]
}